Laboratorio_04/Ejercicio_5/modulos_tb.vcd
$date
	Sun Aug 09 20:09:07 2020
$end
$version
	Icarus Verilog
$end
$timescale
	1ps
$end
$scope module testbench $end
$var wire 1 ! Y6 $end
$var wire 1 " Y5 $end
$var wire 1 # Y4 $end
$var wire 1 $ Y3 $end
$var wire 1 % Y2 $end
$var wire 1 & Y1 $end
$var reg 1 ' A1 $end
$var reg 1 ( A2 $end
$var reg 1 ) A3 $end
$var reg 1 * A4 $end
$var reg 1 + A5 $end
$var reg 1 , A6 $end
$var reg 1 - B1 $end
$var reg 1 . B2 $end
$var reg 1 / B3 $end
$var reg 1 0 B4 $end
$var reg 1 1 B5 $end
$var reg 1 2 B6 $end
$var reg 1 3 C1 $end
$var reg 1 4 C2 $end
$var reg 1 5 C3 $end
$var reg 1 6 C4 $end
$var reg 1 7 C5 $end
$var reg 1 8 C6 $end
$scope module E1 $end
$var wire 1 ) A $end
$var wire 1 / B $end
$var wire 1 5 C $end
$var wire 1 $ Y $end
$var wire 1 9 notB $end
$var wire 1 : w1 $end
$var wire 1 ; w2 $end
$upscope $end
$scope module E2 $end
$var wire 1 , A $end
$var wire 1 2 B $end
$var wire 1 8 C $end
$var wire 1 ! Y $end
$upscope $end
$scope module P1 $end
$var wire 1 ' A $end
$var wire 1 - B $end
$var wire 1 3 C $end
$var wire 1 < M1 $end
$var wire 1 = M2 $end
$var wire 1 > M3 $end
$var wire 1 ? M4 $end
$var wire 1 @ M5 $end
$var wire 1 & Y $end
$var wire 1 A notA $end
$var wire 1 B notB $end
$var wire 1 C notC $end
$upscope $end
$scope module P2 $end
$var wire 1 * A $end
$var wire 1 0 B $end
$var wire 1 6 C $end
$var wire 1 # Y $end
$upscope $end
$scope module S1 $end
$var wire 1 ( A $end
$var wire 1 . B $end
$var wire 1 4 C $end
$var wire 1 % Y $end
$var wire 1 D notB $end
$var wire 1 E notC $end
$var wire 1 F w1 $end
$var wire 1 G w2 $end
$var wire 1 H w3 $end
$upscope $end
$scope module S2 $end
$var wire 1 + A $end
$var wire 1 1 B $end
$var wire 1 7 C $end
$var wire 1 " Y $end
$upscope $end
$upscope $end
$enddefinitions $end
#0
$dumpvars
xH
xG
xF
xE
xD
1C
1B
1A
z@
1?
1>
1=
0<
x;
x:
x9
x8
x7
x6
x5
x4
03
x2
x1
x0
x/
x.
0-
x,
x+
x*
x)
x(
0'
0&
x%
x$
x#
x"
x!
$end
#1
0&
0=
0C
1<
13
#2
0&
0>
0B
1=
1-
#3
x&
1>
1C
x?
03
#4
0A
x?
1'
#5
1?
1B
0-
#6
0C
13
#7
0B
1-
#8
0%
1E
1D
0F
0G
0H
04
0.
0(
#9
0E
14
#10
0D
1.
#11
1E
04
#12
1(
#13
1%
1F
1D
0.
#14
0F
0E
1G
14
#15
0G
0D
1H
1.
#16
0$
19
0:
0;
05
0/
0)
#17
15
#18
09
1/
#19
05
#20
1)
#21
1$
1:
19
0/
#22
1;
15
#23
0:
09
1/
#32
0#
06
00
0*
#33
16
#34
10
#35
06
#36
1*
#37
1#
00
#38
16
#39
10
#40
0"
07
01
0+
#41
17
#42
11
#43
07
#44
1+
#45
1"
01
#46
17
#47
11
#48
0!
08
02
0,
#49
18
#50
12
#51
08
#52
1,
#53
1!
02
#54
18
#55
12
